{
  "rides": [
    {
      "id": 1,
      "empid": "1212",
      "vehicletype": {
        "id": 2,
        "text": "Car"
      },
      "vehiclenum": "dasdsds",
      "vacantseats": 1,
      "time": {
        "hour": 3,
        "minute": 30,
        "second": 0
      },
      "pickup": "sdoaD",
      "drop": "DWNDHSAIDA"
    },
    {
      "id": 2,
      "empid": "88888",
      "vehicletype": {
        "id": 2,
        "text": "Car"
      },
      "vehiclenum": "HDVAFdhg",
      "vacantseats": 5,
      "time": {
        "hour": 2,
        "minute": 48,
        "second": 0
      },
      "pickup": "dajdhadh",
      "drop": "sahdiuadh"
    },
    {
      "id": 3,
      "empid": "12121212",
      "vehicletype": {
        "id": 2,
        "text": "Car"
      },
      "vehiclenum": "121212",
      "vacantseats": 2,
      "time": {
        "hour": 4,
        "minute": 4,
        "second": 0
      },
      "pickup": "LKSJFOSIHF",
      "drop": "LAKSJFOISQHFO"
    },
    {
      "id": 4,
      "empid": "12121212",
      "vehicletype": {
        "id": 2,
        "text": "Car"
      },
      "vehiclenum": "121212",
      "vacantseats": 0,
      "time": {
        "hour": 4,
        "minute": 4,
        "second": 0
      },
      "pickup": "LKSJFOSIHF",
      "drop": "LAKSJFOISQHFO"
    },
    {
      "id": 5,
      "empid": "12121212",
      "vehicletype": {
        "id": 2,
        "text": "Car"
      },
      "vehiclenum": "sdsdsds",
      "vacantseats": 0,
      "time": {
        "hour": 4,
        "minute": 45,
        "second": 0
      },
      "pickup": "KLSWQIOH",
      "drop": "DKLJRHWQ"
    }
  ],
  "bookings": [
    {
      "id": 1,
      "rideid": 1
    },
    {
      "id": 2,
      "rideid": 1
    },
    {
      "id": 3,
      "rideid": 1
    },
    {
      "id": 4,
      "rideid": 1
    },
    {
      "id": 5,
      "rideid": 1
    },
    {
      "id": 6,
      "rideid": 5,
      "empid": "4788878"
    },
    {
      "id": 7,
      "rideid": 5,
      "empid": "4788878"
    },
    {
      "id": 8,
      "rideid": 4,
      "empid": "454545"
    },
    {
      "id": 9,
      "rideid": 4,
      "empid": "32323"
    }
  ]
}